AL MOMENTO DE BAJAR EL PROYECTO REVISEN SI SE LES BAJO EL .env SI NO ES ASI COPIENLO DE SUS ARCHIVOS DE CI4 O SINO LES ENVIO 
EL MIO, SI LO COPIAN SOLO TIENEN QUE MODIFICAR Y DESCOMENTAREAR ESTO:

#--------------------------------------------------------------------
# ENVIRONMENT
#--------------------------------------------------------------------

CI_ENVIRONMENT = development

#--------------------------------------------------------------------
# DATABASE
#--------------------------------------------------------------------

database.default.hostname = localhost
database.default.database = equipo12
database.default.username = root
database.default.password = 
database.default.DBDriver = MySQLi

SI UTILIZA MI ARCHIVO ENV, RENOMBRE EL ARCHIVO Y AGREGUEN UN PUNTO AL INICIO DE ENV QUEDANDO ASI= .ev